1.50000e-02 5.03750e-01
3.00000e-02 5.07499e-01
4.50000e-02 5.11248e-01
6.00000e-02 5.14996e-01
7.50000e-02 5.18741e-01
9.00000e-02 5.22485e-01
1.05000e-01 5.26226e-01
1.20000e-01 5.29964e-01
1.35000e-01 5.33699e-01
1.50000e-01 5.37430e-01
1.65000e-01 5.41157e-01
1.80000e-01 5.44879e-01
1.95000e-01 5.48596e-01
2.10000e-01 5.52308e-01
2.25000e-01 5.56014e-01
2.40000e-01 5.59714e-01
2.55000e-01 5.63407e-01
2.70000e-01 5.67093e-01
2.85000e-01 5.70772e-01
3.00000e-01 5.74443e-01
3.15000e-01 5.78105e-01
3.30000e-01 5.81759e-01
3.45000e-01 5.85405e-01
3.60000e-01 5.89040e-01
3.75000e-01 5.92667e-01
3.90000e-01 5.96283e-01
4.05000e-01 5.99888e-01
4.20000e-01 6.03483e-01
4.35000e-01 6.07067e-01
4.50000e-01 6.10639e-01
4.65000e-01 6.14200e-01
4.80000e-01 6.17748e-01
4.95000e-01 6.21284e-01
5.10000e-01 6.24806e-01
5.25000e-01 6.28316e-01
5.40000e-01 6.31812e-01
5.55000e-01 6.35295e-01
5.70000e-01 6.38763e-01
5.85000e-01 6.42217e-01
6.00000e-01 6.45656e-01
6.15000e-01 6.49081e-01
6.30000e-01 6.52489e-01
6.45000e-01 6.55883e-01
6.60000e-01 6.59260e-01
6.75000e-01 6.62622e-01
6.90000e-01 6.65967e-01
7.05000e-01 6.69295e-01
7.20000e-01 6.72607e-01
7.35000e-01 6.75902e-01
7.50000e-01 6.79179e-01
7.65000e-01 6.82438e-01
7.80000e-01 6.85680e-01
7.95000e-01 6.88904e-01
8.10000e-01 6.92110e-01
8.25000e-01 6.95297e-01
8.40000e-01 6.98465e-01
8.55000e-01 7.01615e-01
8.70000e-01 7.04746e-01
8.85000e-01 7.07857e-01
9.00000e-01 7.10950e-01
9.15000e-01 7.14022e-01
9.30000e-01 7.17075e-01
9.45000e-01 7.20109e-01
9.60000e-01 7.23122e-01
9.75000e-01 7.26115e-01
9.90000e-01 7.29088e-01
1.00500e+00 7.32041e-01
1.02000e+00 7.34973e-01
1.03500e+00 7.37884e-01
1.05000e+00 7.40775e-01
1.06500e+00 7.43645e-01
1.08000e+00 7.46494e-01
1.09500e+00 7.49322e-01
1.11000e+00 7.52129e-01
1.12500e+00 7.54915e-01
1.14000e+00 7.57680e-01
1.15500e+00 7.60423e-01
1.17000e+00 7.63145e-01
1.18500e+00 7.65846e-01
1.20000e+00 7.68525e-01
1.21500e+00 7.71182e-01
1.23000e+00 7.73819e-01
1.24500e+00 7.76433e-01
1.26000e+00 7.79026e-01
1.27500e+00 7.81597e-01
1.29000e+00 7.84147e-01
1.30500e+00 7.86675e-01
1.32000e+00 7.89182e-01
1.33500e+00 7.91666e-01
1.35000e+00 7.94130e-01
1.36500e+00 7.96571e-01
1.38000e+00 7.98991e-01
1.39500e+00 8.01389e-01
1.41000e+00 8.03766e-01
1.42500e+00 8.06121e-01
1.44000e+00 8.08455e-01
1.45500e+00 8.10767e-01
1.47000e+00 8.13057e-01
1.48500e+00 8.15327e-01
1.50000e+00 8.17574e-01
1.51500e+00 8.19801e-01
1.53000e+00 8.22006e-01
1.54500e+00 8.24190e-01
1.56000e+00 8.26353e-01
1.57500e+00 8.28495e-01
1.59000e+00 8.30616e-01
1.60500e+00 8.32716e-01
1.62000e+00 8.34795e-01
1.63500e+00 8.36853e-01
1.65000e+00 8.38891e-01
1.66500e+00 8.40908e-01
1.68000e+00 8.42905e-01
1.69500e+00 8.44881e-01
1.71000e+00 8.46836e-01
1.72500e+00 8.48772e-01
1.74000e+00 8.50687e-01
1.75500e+00 8.52582e-01
1.77000e+00 8.54458e-01
1.78500e+00 8.56313e-01
1.80000e+00 8.58149e-01
1.81500e+00 8.59965e-01
1.83000e+00 8.61762e-01
1.84500e+00 8.63539e-01
1.86000e+00 8.65297e-01
1.87500e+00 8.67036e-01
1.89000e+00 8.68756e-01
1.90500e+00 8.70456e-01
1.92000e+00 8.72138e-01
1.93500e+00 8.73802e-01
1.95000e+00 8.75447e-01
1.96500e+00 8.77073e-01
1.98000e+00 8.78681e-01
1.99500e+00 8.80271e-01
2.01000e+00 8.81843e-01
2.02500e+00 8.83397e-01
2.04000e+00 8.84933e-01
2.05500e+00 8.86452e-01
2.07000e+00 8.87953e-01
2.08500e+00 8.89437e-01
2.10000e+00 8.90903e-01
2.11500e+00 8.92353e-01
2.13000e+00 8.93785e-01
2.14500e+00 8.95201e-01
2.16000e+00 8.96600e-01
2.17500e+00 8.97982e-01
2.19000e+00 8.99348e-01
2.20500e+00 9.00698e-01
2.22000e+00 9.02031e-01
2.23500e+00 9.03349e-01
2.25000e+00 9.04651e-01
2.26500e+00 9.05937e-01
2.28000e+00 9.07207e-01
2.29500e+00 9.08462e-01
2.31000e+00 9.09702e-01
2.32500e+00 9.10926e-01
2.34000e+00 9.12136e-01
2.35500e+00 9.13331e-01
2.37000e+00 9.14511e-01
2.38500e+00 9.15676e-01
2.40000e+00 9.16827e-01
2.41500e+00 9.17964e-01
2.43000e+00 9.19087e-01
2.44500e+00 9.20195e-01
2.46000e+00 9.21290e-01
2.47500e+00 9.22371e-01
2.49000e+00 9.23438e-01
2.50500e+00 9.24492e-01
2.52000e+00 9.25532e-01
2.53500e+00 9.26559e-01
2.55000e+00 9.27574e-01
2.56500e+00 9.28575e-01
2.58000e+00 9.29563e-01
2.59500e+00 9.30539e-01
2.61000e+00 9.31502e-01
2.62500e+00 9.32453e-01
2.64000e+00 9.33392e-01
2.65500e+00 9.34318e-01
2.67000e+00 9.35233e-01
2.68500e+00 9.36136e-01
2.70000e+00 9.37027e-01
2.71500e+00 9.37906e-01
2.73000e+00 9.38774e-01
2.74500e+00 9.39630e-01
2.76000e+00 9.40476e-01
2.77500e+00 9.41310e-01
2.79000e+00 9.42133e-01
2.80500e+00 9.42945e-01
2.82000e+00 9.43747e-01
2.83500e+00 9.44538e-01
2.85000e+00 9.45319e-01
2.86500e+00 9.46089e-01
2.88000e+00 9.46849e-01
2.89500e+00 9.47599e-01
2.91000e+00 9.48339e-01
2.92500e+00 9.49069e-01
2.94000e+00 9.49789e-01
2.95500e+00 9.50499e-01
2.97000e+00 9.51200e-01
2.98500e+00 9.51892e-01
3.00000e+00 9.52574e-01
