\relax 
\@writefile{lof}{\contentsline {figure}{\numberline {1}{\ignorespaces Plot of calculated $E(\phi ,k)$ from integration and compared with the expected result for $k = 0.9, 0.7, 0.5$ and for $\phi \in [-\pi ;2\pi ]$}}{1}}
\newlabel{fig:plot}{{1}{1}}
